<?xml version="1.0" encoding="utf-8"?>
<!-- Generator: Adobe Illustrator 21.0.0, SVG Export Plug-In . SVG Version: 6.00 Build 0)  -->
<svg version="1.1" id="Layer_1" xmlns="http://www.w3.org/2000/svg" xmlns:xlink="http://www.w3.org/1999/xlink" x="0px" y="0px"
	 viewBox="0 0 595.3 104.7" enable-background="new 0 0 595.3 104.7" xml:space="preserve">
<g>
	<path fill="#FFFFFF" d="M149.5,82h0.3c0.9,0,1.6-0.2,2.2-0.7c0.6-0.5,1-1.1,1.4-1.9l21.1-48.8c0.1-0.2,0.1-0.4,0.2-0.6
		c0-0.2,0.1-0.4,0.1-0.6c0-0.5-0.1-1-0.4-1.5c-0.3-0.4-0.6-0.8-1.1-1.1c-0.5-0.3-1-0.4-1.5-0.4c-0.5,0-0.9,0.1-1.3,0.3
		c-0.4,0.2-0.7,0.5-1,0.8c-0.3,0.3-0.5,0.7-0.7,1.1l-19,45.4l-18.9-45.3c-0.3-0.7-0.7-1.2-1.2-1.7c-0.5-0.4-1.2-0.7-2-0.7
		c-0.6,0-1.1,0.2-1.6,0.4c-0.5,0.3-0.8,0.7-1.1,1.1c-0.3,0.5-0.4,0.9-0.4,1.5c0,0.3,0,0.5,0.1,0.7c0.1,0.2,0.1,0.4,0.2,0.7
		l21.1,48.6c0.3,0.8,0.8,1.4,1.4,1.9C147.9,81.7,148.6,82,149.5,82L149.5,82z"/>
	<path fill="#FFFFFF" d="M183.8,29.4c0,0.6,0.2,1.2,0.5,1.7c0.3,0.5,0.7,0.8,1.2,1.1c0.5,0.3,1.1,0.4,1.8,0.4c0.7,0,1.3-0.1,1.8-0.4
		c0.5-0.3,1-0.7,1.3-1.1c0.3-0.5,0.5-1,0.5-1.7v-1c0-0.7-0.2-1.2-0.5-1.7c-0.3-0.5-0.7-0.8-1.3-1.1c-0.5-0.3-1.1-0.4-1.8-0.4
		c-0.7,0-1.2,0.1-1.8,0.4c-0.5,0.3-0.9,0.6-1.2,1.1c-0.3,0.5-0.5,1.1-0.5,1.7V29.4L183.8,29.4z M184.4,78.7c0,0.9,0.3,1.6,0.9,2.2
		c0.6,0.6,1.3,0.9,2.2,0.9c0.9,0,1.6-0.3,2.1-0.9c0.5-0.6,0.8-1.3,0.8-2.2v-35c0-0.9-0.3-1.6-0.9-2.2c-0.6-0.6-1.3-0.9-2.2-0.9
		c-0.5,0-1.1,0.1-1.5,0.4c-0.4,0.3-0.8,0.6-1.1,1.1c-0.3,0.5-0.4,1-0.4,1.5V78.7L184.4,78.7z"/>
	<path fill="#FFFFFF" d="M217.7,82.1c2,0,3.9-0.3,5.6-0.8c1.7-0.5,3.3-1.3,4.6-2.4c1.3-1,2.3-2.3,3-3.8c0.7-1.5,1.1-3.2,1.1-5.1
		v-0.2c0-1.8-0.4-3.3-1.1-4.6c-0.7-1.3-1.7-2.3-3-3.2c-1.2-0.9-2.6-1.6-4.2-2.2c-1.5-0.6-3.1-1.1-4.7-1.6c-1.4-0.4-2.7-0.8-3.9-1.2
		c-1.2-0.4-2.3-0.9-3.3-1.4c-1-0.5-1.7-1.1-2.3-1.8c-0.6-0.7-0.8-1.5-0.9-2.5v-0.2c0-1.1,0.3-2.1,1-3c0.6-0.9,1.5-1.6,2.7-2.1
		c1.2-0.5,2.5-0.8,4.1-0.8c1.7,0,3.5,0.3,5.3,0.8c1.8,0.5,3.5,1.3,5.3,2.3c0.2,0.1,0.4,0.2,0.6,0.2c0.2,0.1,0.5,0.1,0.8,0.1
		c0.8,0,1.4-0.3,1.9-0.8c0.5-0.5,0.8-1.1,0.8-1.8c0-0.6-0.2-1.1-0.4-1.5c-0.3-0.4-0.6-0.8-1-1c-1.3-0.7-2.7-1.3-4.1-1.8
		c-1.4-0.5-2.9-0.9-4.4-1.2c-1.5-0.3-2.9-0.4-4.4-0.4c-2,0-3.8,0.3-5.5,0.8c-1.7,0.5-3.1,1.3-4.3,2.3c-1.2,1-2.2,2.2-2.9,3.6
		c-0.7,1.4-1,3-1,4.7V52c0,1.8,0.4,3.4,1.2,4.7c0.8,1.3,1.8,2.3,3.1,3.2c1.3,0.8,2.7,1.5,4.3,2.1c1.6,0.6,3.1,1.1,4.7,1.5
		c1.3,0.4,2.6,0.8,3.8,1.2c1.2,0.4,2.3,0.9,3.2,1.4c0.9,0.5,1.7,1.2,2.2,1.9c0.5,0.7,0.8,1.6,0.8,2.6v0.2c0,1.3-0.4,2.4-1.1,3.4
		c-0.7,0.9-1.7,1.7-2.9,2.2c-1.2,0.5-2.7,0.8-4.3,0.8c-2.2,0-4.3-0.4-6.5-1.1c-2.1-0.7-4.2-1.8-6.3-3.2c-0.2-0.2-0.4-0.3-0.7-0.4
		c-0.3-0.1-0.5-0.1-0.8-0.1c-0.8,0-1.4,0.3-1.9,0.8c-0.5,0.5-0.8,1.1-0.8,1.8c0,0.5,0.1,0.9,0.3,1.3c0.2,0.4,0.5,0.7,0.8,0.9
		c1.5,1,3.1,2,4.8,2.7c1.7,0.8,3.5,1.3,5.3,1.7C214.1,81.9,215.9,82.1,217.7,82.1L217.7,82.1z"/>
	<path fill="#FFFFFF" d="M243.2,29.4c0,0.6,0.2,1.2,0.5,1.7c0.3,0.5,0.7,0.8,1.2,1.1c0.5,0.3,1.1,0.4,1.8,0.4c0.7,0,1.3-0.1,1.8-0.4
		c0.5-0.3,1-0.7,1.3-1.1c0.3-0.5,0.5-1,0.5-1.7v-1c0-0.7-0.2-1.2-0.5-1.7c-0.3-0.5-0.7-0.8-1.3-1.1c-0.5-0.3-1.1-0.4-1.8-0.4
		c-0.7,0-1.2,0.1-1.8,0.4c-0.5,0.3-0.9,0.6-1.2,1.1c-0.3,0.5-0.5,1.1-0.5,1.7V29.4L243.2,29.4z M243.8,78.7c0,0.9,0.3,1.6,0.9,2.2
		c0.6,0.6,1.3,0.9,2.2,0.9c0.9,0,1.6-0.3,2.1-0.9c0.5-0.6,0.8-1.3,0.8-2.2v-35c0-0.9-0.3-1.6-0.9-2.2c-0.6-0.6-1.3-0.9-2.2-0.9
		c-0.5,0-1.1,0.1-1.5,0.4c-0.4,0.3-0.8,0.6-1.1,1.1c-0.3,0.5-0.4,1-0.4,1.5V78.7L243.8,78.7z"/>
	<path fill="#FFFFFF" d="M282.1,82.3c3.1,0,5.9-0.6,8.4-1.7c2.6-1.1,4.8-2.6,6.7-4.6c1.9-1.9,3.4-4.2,4.4-6.7c1-2.5,1.6-5.2,1.6-8.1
		v-0.2c0-2.9-0.5-5.6-1.6-8.1c-1-2.5-2.5-4.7-4.4-6.7c-1.9-1.9-4.1-3.4-6.6-4.5c-2.5-1.1-5.3-1.7-8.4-1.7c-3.1,0-5.9,0.6-8.4,1.7
		c-2.6,1.1-4.8,2.6-6.7,4.6c-1.9,2-3.4,4.2-4.4,6.7c-1,2.5-1.6,5.2-1.6,8.1v0.2c0,2.9,0.5,5.6,1.6,8.1c1,2.5,2.5,4.7,4.3,6.6
		c1.9,1.9,4.1,3.4,6.6,4.5C276.3,81.7,279.1,82.3,282.1,82.3L282.1,82.3z M282.3,76.9c-2.1,0-4.1-0.4-5.9-1.2
		c-1.8-0.8-3.4-1.9-4.7-3.4c-1.4-1.4-2.4-3.1-3.1-5c-0.7-1.9-1.1-3.9-1.1-6.1v-0.2c0-2.1,0.4-4.2,1.1-6c0.7-1.9,1.7-3.5,3-5
		c1.3-1.4,2.9-2.6,4.7-3.4c1.8-0.8,3.8-1.2,6-1.2c2.1,0,4.1,0.4,5.9,1.2c1.8,0.8,3.4,1.9,4.7,3.4c1.4,1.4,2.4,3.1,3.2,5
		c0.8,1.9,1.1,3.9,1.1,6.1v0.2c0,2.1-0.4,4.1-1.1,6c-0.7,1.9-1.7,3.5-3.1,4.9c-1.3,1.4-2.9,2.5-4.7,3.3
		C286.5,76.5,284.5,76.9,282.3,76.9L282.3,76.9z"/>
	<path fill="#FFFFFF" d="M314.1,78.7c0,0.9,0.3,1.6,0.9,2.2c0.6,0.6,1.3,0.9,2.2,0.9c0.9,0,1.6-0.3,2.1-0.9c0.5-0.6,0.8-1.3,0.8-2.2
		V58.3c0-2.5,0.5-4.8,1.6-6.6c1-1.9,2.5-3.4,4.3-4.4c1.8-1.1,3.9-1.6,6.2-1.6c2.4,0,4.4,0.5,6,1.5c1.7,1,2.9,2.4,3.8,4.2
		c0.9,1.8,1.3,4,1.3,6.5v20.9c0,0.9,0.3,1.6,0.9,2.2c0.6,0.6,1.3,0.9,2.2,0.9c0.8,0,1.5-0.3,2.1-0.9c0.6-0.6,0.8-1.3,0.9-2.2V56.3
		c0-3.2-0.6-6-1.8-8.5c-1.2-2.4-3-4.3-5.3-5.6c-2.3-1.4-5.1-2-8.3-2.1c-2.3,0-4.3,0.4-6.1,1.1c-1.7,0.7-3.3,1.6-4.5,2.8
		c-1.3,1.2-2.3,2.5-3.2,4v-4.4c0-0.9-0.3-1.6-0.9-2.2c-0.6-0.6-1.3-0.9-2.2-0.9c-0.5,0-1.1,0.1-1.5,0.4c-0.4,0.3-0.8,0.6-1.1,1.1
		c-0.3,0.5-0.4,1-0.4,1.5V78.7L314.1,78.7z"/>
	<path fill="#FFFFFF" d="M362,75.4c0,1.1,0.3,2.1,0.8,3c0.5,0.9,1.2,1.6,2.1,2.2c0.9,0.5,1.9,0.8,3,0.8h15.3c3.4,0,6.6-0.5,9.6-1.4
		c3-0.9,5.6-2.2,8-3.8c2.4-1.7,4.4-3.6,6.1-5.9c1.7-2.3,3-4.8,3.9-7.5c0.9-2.7,1.4-5.7,1.4-8.7v-0.2c0-3.9-0.7-7.4-2.1-10.7
		c-1.4-3.3-3.4-6.2-6-8.6c-2.6-2.5-5.6-4.4-9.2-5.7c-3.5-1.4-7.5-2.1-11.8-2.1H368c-1.1,0-2.1,0.3-3,0.8c-0.9,0.5-1.6,1.2-2.1,2.1
		c-0.5,0.9-0.8,1.9-0.8,3.1V75.4L362,75.4z M374.1,70.5V37.6h9.3c2.5,0,4.7,0.4,6.7,1.2c2,0.8,3.7,1.9,5.2,3.4
		c1.4,1.5,2.6,3.2,3.4,5.2c0.8,2,1.2,4.2,1.2,6.7v0.2c0,2.4-0.4,4.6-1.2,6.6c-0.8,2-1.9,3.7-3.4,5.1c-1.5,1.4-3.2,2.6-5.2,3.3
		s-4.3,1.2-6.7,1.2H374.1L374.1,70.5z"/>
	<path fill="#FFFFFF" d="M421.6,29.7c0,1.1,0.3,2.1,0.9,3c0.6,0.8,1.4,1.5,2.4,1.9c1,0.5,2.1,0.7,3.4,0.7c1.3,0,2.4-0.2,3.4-0.7
		c1-0.5,1.8-1.1,2.4-1.9c0.6-0.8,0.9-1.8,0.9-3v-0.2c0-1.1-0.3-2.1-0.9-3c-0.6-0.8-1.4-1.5-2.4-1.9c-1-0.4-2.1-0.7-3.4-0.7
		c-1.3,0-2.4,0.2-3.4,0.7c-1,0.4-1.8,1.1-2.4,1.9c-0.6,0.8-0.9,1.8-0.9,3V29.7L421.6,29.7z M422.3,75.9c0,1.1,0.3,2.1,0.8,3
		c0.5,0.9,1.2,1.6,2.1,2.1c0.9,0.5,1.9,0.8,3,0.8c1.1,0,2.1-0.3,3-0.8c0.9-0.5,1.6-1.2,2.1-2.1c0.5-0.9,0.8-1.9,0.8-3V45
		c0-1.1-0.3-2.1-0.8-3c-0.5-0.9-1.2-1.6-2.1-2.1c-0.9-0.5-1.9-0.8-3-0.8c-1.1,0-2.1,0.3-3,0.8c-0.9,0.5-1.6,1.2-2.1,2.1
		c-0.5,0.9-0.8,1.9-0.8,3V75.9L422.3,75.9z"/>
	<path fill="#FFFFFF" d="M445.4,75.9c0,1.1,0.3,2.1,0.8,3c0.5,0.9,1.2,1.6,2.1,2.1c0.9,0.5,1.9,0.8,3,0.8c1.1,0,2.1-0.3,3-0.8
		c0.9-0.5,1.6-1.2,2.1-2.1c0.5-0.9,0.8-1.9,0.8-3V64.8c0-4.2,0.8-7.5,2.4-9.9c1.6-2.4,3.9-3.9,6.9-4.6c0.8-0.2,1.6-0.5,2.2-1
		c0.7-0.5,1.2-1.1,1.6-1.8c0.4-0.8,0.6-1.7,0.6-2.7c0-1.1-0.2-2.1-0.7-3c-0.5-0.9-1.1-1.5-2-2c-0.9-0.5-1.9-0.7-3.1-0.8
		c-1.2,0-2.3,0.4-3.3,1.1c-1,0.7-1.9,1.7-2.7,2.9c-0.8,1.2-1.5,2.4-2.1,3.8V45c0-1.1-0.3-2.1-0.8-3c-0.5-0.9-1.2-1.6-2.1-2.1
		c-0.9-0.5-1.9-0.8-3-0.8c-1.1,0-2.1,0.3-3,0.8c-0.9,0.5-1.6,1.2-2.1,2.1c-0.5,0.9-0.8,1.9-0.8,3V75.9L445.4,75.9z"/>
	<path fill="#FFFFFF" d="M486.4,57.2c0.3-1.8,0.9-3.4,1.7-4.7c0.8-1.3,1.8-2.4,3.1-3.1c1.2-0.7,2.7-1.1,4.3-1.1
		c1.7,0,3.1,0.4,4.4,1.1c1.2,0.7,2.2,1.8,3,3.1c0.8,1.3,1.2,2.9,1.5,4.7H486.4L486.4,57.2z M511.1,77.2c0.4-0.4,0.8-0.9,1.1-1.5
		c0.3-0.6,0.4-1.3,0.5-2.1c0-0.9-0.2-1.7-0.6-2.4c-0.4-0.7-0.9-1.3-1.6-1.7c-0.7-0.4-1.5-0.6-2.4-0.6c-0.6,0-1.1,0.1-1.6,0.2
		c-0.5,0.2-0.9,0.4-1.3,0.7c-1.2,0.9-2.5,1.6-3.9,2.1c-1.4,0.5-2.9,0.7-4.5,0.7c-2.7,0-4.9-0.7-6.7-2.1c-1.8-1.4-3-3.4-3.6-6.1H510
		c1.1,0,2-0.2,2.8-0.7c0.8-0.5,1.5-1.1,2-2c0.5-0.9,0.7-1.9,0.7-3c0-1.8-0.2-3.6-0.8-5.4c-0.5-1.9-1.3-3.7-2.3-5.4
		c-1-1.7-2.3-3.3-3.9-4.7c-1.6-1.4-3.5-2.5-5.7-3.3c-2.2-0.8-4.7-1.2-7.5-1.3c-3.1,0-5.8,0.6-8.4,1.7c-2.5,1.1-4.7,2.7-6.5,4.7
		c-1.8,2-3.3,4.3-4.3,6.9c-1,2.6-1.5,5.4-1.5,8.4v0.2c0,3.2,0.6,6.1,1.7,8.8c1.1,2.6,2.6,4.9,4.6,6.8c2,1.9,4.3,3.4,6.9,4.4
		c2.7,1,5.6,1.6,8.7,1.6c3,0,5.8-0.5,8.2-1.4C507.2,80,509.3,78.8,511.1,77.2L511.1,77.2z"/>
	<path fill="#FFFFFF" d="M544.4,82.3c2.3,0,4.3-0.2,6.1-0.7c1.8-0.4,3.4-1.1,4.8-1.9c1.4-0.8,2.7-1.7,3.9-2.8c0.5-0.5,0.9-1,1.2-1.6
		c0.3-0.6,0.5-1.3,0.5-2.1c0-1-0.2-1.8-0.7-2.6c-0.4-0.8-1-1.4-1.8-1.8c-0.8-0.4-1.6-0.7-2.5-0.7c-0.7,0-1.3,0.1-1.9,0.4
		c-0.5,0.2-1,0.5-1.3,0.7c-1.1,0.9-2.3,1.6-3.6,2.1c-1.3,0.5-2.7,0.8-4.2,0.8c-1.6,0-3.1-0.3-4.4-0.9c-1.3-0.6-2.4-1.4-3.3-2.5
		c-0.9-1.1-1.6-2.3-2.1-3.7c-0.5-1.4-0.7-2.9-0.7-4.5v-0.2c0-1.5,0.3-3,0.8-4.4c0.5-1.4,1.2-2.6,2.1-3.6c0.9-1.1,2-1.9,3.2-2.5
		c1.2-0.6,2.6-0.9,4.1-0.9c1.5,0,2.9,0.2,4.1,0.7c1.2,0.5,2.3,1.1,3.3,1.9c0.4,0.3,0.8,0.5,1.4,0.8c0.6,0.2,1.3,0.4,2,0.4
		c1,0,1.9-0.2,2.7-0.7c0.8-0.5,1.4-1.1,1.9-1.9c0.5-0.8,0.7-1.7,0.7-2.7c0-0.7-0.1-1.3-0.3-1.8c-0.2-0.5-0.4-1-0.7-1.4
		c-0.3-0.4-0.6-0.7-0.8-0.9c-1.7-1.5-3.8-2.6-6.1-3.5c-2.3-0.8-5.1-1.2-8.2-1.2c-3.2,0-6.2,0.6-8.8,1.7c-2.7,1.1-5,2.7-6.9,4.7
		c-2,2-3.5,4.3-4.5,6.9c-1.1,2.6-1.6,5.4-1.6,8.4v0.2c0,3,0.6,5.8,1.6,8.4c1.1,2.6,2.6,4.9,4.5,6.9c2,2,4.3,3.5,6.9,4.6
		C538.3,81.7,541.2,82.3,544.4,82.3L544.4,82.3z"/>
	<path fill="#FFFFFF" d="M583.3,82.1c1.3,0,2.5-0.1,3.5-0.3c1.1-0.2,2.2-0.5,3.3-0.9c0.6-0.2,1.1-0.5,1.5-1c0.5-0.4,0.8-0.9,1.1-1.5
		c0.3-0.6,0.4-1.3,0.4-2c0-0.9-0.2-1.8-0.7-2.5c-0.4-0.7-1-1.3-1.8-1.8c-0.7-0.4-1.6-0.7-2.5-0.7c-0.1,0-0.4,0-0.6,0
		c-0.3,0-0.5,0-0.8,0c-1.3,0-2.3-0.3-2.9-1c-0.6-0.7-0.9-1.7-0.9-3.1V49.7h5.2c0.9,0,1.8-0.2,2.6-0.7c0.8-0.5,1.4-1.1,1.8-1.8
		c0.4-0.8,0.7-1.6,0.7-2.6c0-0.9-0.2-1.8-0.7-2.6c-0.5-0.8-1.1-1.4-1.8-1.8c-0.8-0.5-1.6-0.7-2.6-0.7H583v-5.2c0-1.1-0.3-2.1-0.8-3
		c-0.5-0.9-1.2-1.6-2.1-2.1c-0.9-0.5-1.9-0.8-3-0.8c-1.1,0-2.1,0.3-3,0.8c-0.9,0.5-1.6,1.2-2.1,2.1c-0.5,0.9-0.8,1.9-0.8,3v5.2h-0.4
		c-0.9,0-1.8,0.2-2.6,0.7c-0.8,0.5-1.4,1.1-1.8,1.8c-0.4,0.8-0.7,1.6-0.7,2.6c0,0.9,0.2,1.8,0.7,2.6c0.5,0.8,1.1,1.4,1.8,1.8
		c0.8,0.4,1.6,0.7,2.6,0.7h0.4v19.8c0,2.4,0.3,4.4,0.9,6c0.6,1.6,1.4,2.9,2.5,3.9c1.1,0.9,2.4,1.6,3.8,2.1
		C579.8,81.9,581.5,82.1,583.3,82.1L583.3,82.1z"/>
	<g>
		<defs>
			<path id="SVGID_1_" d="M71.7,43.4l2.6,6.9c1.9,4.9,9.3,2.1,7.5-2.8L76,32.4h15.2c6.6,0,11.9,5.4,11.9,11.9V62
				c0,6.6-5.4,11.9-11.9,11.9H73.3v17.9c0,6.6-5.4,11.9-11.9,11.9H43.8c-6.6,0-11.9-5.4-11.9-11.9V80.4
				C49.6,76.6,65.5,64.1,71.7,43.4L71.7,43.4z"/>
		</defs>
		<use xlink:href="#SVGID_1_"  overflow="visible" fill-rule="evenodd" clip-rule="evenodd" fill="#FFFFFF"/>
		<clipPath id="SVGID_2_">
			<use xlink:href="#SVGID_1_"  overflow="visible"/>
		</clipPath>
		<g clip-path="url(#SVGID_2_)">
			<defs>
				<rect id="SVGID_3_" x="31.9" y="32.4" width="71.3" height="71.3"/>
			</defs>
			<use xlink:href="#SVGID_3_"  overflow="visible" fill="#FFFFFF"/>
			<clipPath id="SVGID_4_">
				<use xlink:href="#SVGID_3_"  overflow="visible"/>
			</clipPath>
		</g>
	</g>
	<g>
		<defs>
			<path id="SVGID_5_" d="M43.8,2.6h17.6c6.6,0,11.9,5.4,11.9,11.9v15.1c-0.7-0.2-1.6-0.2-2.5,0.1c-12.8,4.8-2.6,1-15.5,5.8
				c-4.9,1.9-2.1,9.3,2.8,7.5l5.9-2.2C56.6,66.5,30.5,78.1,8.1,72.3C4.5,70.3,2,66.4,2,62V44.4c0-6.6,5.4-11.9,11.9-11.9h17.9V14.5
				C31.9,7.9,37.2,2.6,43.8,2.6L43.8,2.6z"/>
		</defs>
		<use xlink:href="#SVGID_5_"  overflow="visible" fill-rule="evenodd" clip-rule="evenodd" fill="#FFFFFF"/>
		<clipPath id="SVGID_6_">
			<use xlink:href="#SVGID_5_"  overflow="visible"/>
		</clipPath>
		<g clip-path="url(#SVGID_6_)">
			<defs>
				<rect id="SVGID_7_" x="2" y="2.6" width="71.3" height="75.5"/>
			</defs>
			<use xlink:href="#SVGID_7_"  overflow="visible" fill="#FFFFFF"/>
			<clipPath id="SVGID_8_">
				<use xlink:href="#SVGID_7_"  overflow="visible"/>
			</clipPath>
		</g>
	</g>
</g>
</svg>
